<?xml version="1.0" standalone="no"?>
<!DOCTYPE svg PUBLIC "-//W3C//DTD SVG 20010904//EN"
 "http://www.w3.org/TR/2001/REC-SVG-20010904/DTD/svg10.dtd">
<svg version="1.0" xmlns="http://www.w3.org/2000/svg"
 width="512.000000pt" height="512.000000pt" viewBox="0 0 512.000000 512.000000"
 preserveAspectRatio="xMidYMid meet">

<g transform="translate(0.000000,512.000000) scale(0.100000,-0.100000)"
fill="#000000" stroke="none">
<path d="M2340 4940 c-44 -11 -67 -39 -76 -95 -7 -47 -5 -55 50 -345 26 -140
86 -518 86 -546 0 -2 -13 -10 -29 -18 -29 -16 -54 -63 -66 -128 -7 -35 -7 -35
-59 -35 -58 0 -99 -18 -137 -60 -36 -38 -46 -59 -54 -114 -6 -44 -9 -47 -48
-59 -44 -13 -97 -59 -97 -85 0 -8 -9 -41 -19 -73 -11 -32 -23 -82 -27 -112 -3
-30 -13 -63 -22 -72 -23 -27 -10 -126 33 -253 41 -122 149 -353 214 -458 29
-48 46 -90 56 -140 25 -134 115 -541 161 -734 33 -139 50 -193 60 -193 8 0 14
3 14 7 0 3 -22 99 -49 212 -27 113 -56 240 -65 281 -97 466 -107 503 -153 585
-25 44 -53 94 -63 110 -38 69 -124 265 -152 349 -16 50 -33 119 -35 154 -5 58
-4 64 15 69 17 4 21 12 19 42 l-2 36 55 -3 c53 -4 110 -26 117 -47 2 -6 -23
-22 -54 -37 l-58 -26 66 0 c75 1 89 -5 89 -33 0 -13 -7 -19 -21 -19 -11 0 -17
-4 -14 -10 3 -5 17 -10 31 -10 13 0 24 -5 24 -12 0 -6 10 -22 21 -35 19 -19
20 -25 8 -39 -13 -16 -8 -17 61 -12 65 5 94 14 220 71 310 140 496 234 518
262 38 48 48 99 31 163 -13 54 -17 58 -69 86 -30 15 -97 57 -147 92 -51 34
-93 61 -93 58 0 -2 34 -42 75 -89 83 -92 93 -123 50 -151 -13 -8 -32 -14 -42
-12 -23 4 -56 64 -90 163 l-28 80 -5 -108 c-5 -104 -6 -110 -33 -133 -15 -13
-41 -24 -56 -24 -40 0 -53 -19 -36 -50 8 -14 14 -37 15 -52 0 -34 -20 -80 -34
-75 -9 3 -46 107 -105 297 -22 68 -22 62 0 -92 15 -105 8 -128 -51 -158 -22
-11 -40 -25 -40 -31 0 -6 14 -28 32 -50 26 -32 30 -44 22 -57 -24 -38 -40 -23
-123 123 -46 80 -85 144 -87 142 -3 -2 7 -28 20 -58 43 -98 47 -125 23 -155
-16 -21 -18 -30 -9 -45 14 -22 16 -56 3 -63 -8 -5 -78 73 -151 169 -14 18 -42
53 -62 77 -35 42 -37 47 -27 81 11 39 51 67 115 81 26 6 30 11 27 30 -7 34 14
101 42 134 33 39 97 64 141 56 19 -3 37 -10 40 -15 11 -19 21 -7 22 28 2 58
30 141 52 153 54 29 180 -3 216 -54 11 -15 27 -37 36 -49 17 -22 17 -21 8 13
-6 19 -10 42 -10 52 0 25 47 76 90 98 l37 19 65 -44 c90 -60 98 -85 28 -85
-31 0 -95 18 -162 45 -15 6 -18 2 -18 -24 0 -41 36 -77 85 -87 52 -9 189 2
254 21 74 23 80 18 70 -47 -13 -82 -17 -94 -45 -127 -30 -36 -27 -38 18 -11
18 11 36 20 41 20 4 0 7 -19 7 -41 l0 -42 51 7 c48 7 50 6 44 -14 -4 -12 -8
-40 -10 -63 -3 -37 -6 -43 -34 -51 l-31 -9 45 -28 c66 -42 59 -85 -10 -71 -25
4 -27 3 -20 -14 20 -45 17 -93 -8 -148 -67 -147 -210 -281 -415 -391 -115 -62
-122 -116 -42 -335 110 -303 196 -542 330 -912 l42 -118 178 0 178 0 -52 118
c-151 333 -220 514 -257 667 -24 102 -26 278 -3 356 31 106 125 267 305 522
31 44 34 55 34 115 0 59 -8 86 -64 222 -83 203 -138 327 -163 368 -25 41 -63
61 -141 73 -46 7 -77 20 -119 49 -31 22 -64 43 -75 48 -10 4 -35 18 -55 31
-37 22 -39 26 -124 289 -47 147 -108 337 -136 422 -57 177 -75 212 -122 234
-37 18 -36 17 -86 6z m63 -60 c14 -12 40 -49 57 -83 33 -67 73 -213 64 -229
-4 -5 -25 -18 -48 -29 l-41 -19 54 2 c39 1 55 -2 62 -14 13 -23 49 -178 49
-210 0 -33 -23 -57 -62 -65 -36 -7 -19 -23 25 -23 36 0 82 -24 92 -47 4 -10
18 -49 31 -88 l25 -70 -23 -15 c-30 -20 -62 -51 -74 -73 -10 -17 -14 -16 -65
7 -30 14 -66 26 -81 26 -16 0 -28 3 -28 6 0 34 -74 482 -111 674 -40 201 -33
270 26 270 12 0 34 -9 48 -20z"/>
<path d="M40 2870 l0 -190 75 0 75 0 0 -410 0 -410 -75 0 -75 0 0 -190 0 -190
553 0 c587 0 795 9 946 40 181 37 312 124 369 248 23 50 27 70 26 157 0 119
-18 168 -90 245 -56 60 -119 101 -202 131 l-64 22 45 17 c184 70 265 176 255
334 -9 134 -85 244 -211 305 -144 71 -273 81 -1024 81 l-603 0 0 -190z m1083
-172 c60 -18 87 -58 87 -128 0 -48 -5 -64 -26 -89 -32 -39 -70 -49 -221 -57
l-123 -7 0 153 0 153 123 -7 c67 -4 139 -12 160 -18z m39 -581 c52 -22 78 -68
78 -138 0 -42 -5 -63 -21 -83 -40 -51 -72 -60 -231 -64 l-148 -4 0 157 0 158
143 -5 c99 -3 153 -10 179 -21z"/>
<path d="M4022 3049 c-362 -35 -658 -279 -728 -599 -35 -165 -13 -393 51 -520
91 -180 200 -286 365 -356 168 -70 314 -97 530 -97 281 1 458 64 614 221 144
144 195 281 196 525 l0 87 -360 0 -360 0 0 -145 0 -145 80 0 80 0 0 -30 c0
-48 -38 -117 -79 -142 -31 -20 -49 -23 -142 -23 -100 0 -108 2 -155 30 -70 44
-109 112 -124 222 -14 97 -8 340 10 416 17 70 66 136 125 166 44 23 62 26 150
26 87 0 107 -3 157 -27 58 -27 129 -91 154 -140 l15 -28 194 0 195 0 0 265 0
265 -195 0 -195 0 0 -49 0 -50 -57 35 c-79 47 -191 81 -313 94 -56 5 -107 9
-114 9 -6 -1 -48 -5 -94 -10z"/>
<path d="M40 1240 l0 -120 60 0 60 0 0 -270 0 -270 -60 0 -60 0 0 -125 0 -125
355 0 355 0 0 125 0 125 -55 0 -55 0 0 270 0 270 55 0 55 0 0 120 0 120 -355
0 -355 0 0 -120z"/>
<path d="M870 1241 l0 -121 50 0 50 0 0 -270 0 -270 -50 0 -50 0 0 -125 0
-125 308 0 c364 1 624 13 707 35 252 65 405 245 405 475 0 240 -155 415 -435
492 -76 20 -104 22 -532 26 l-453 4 0 -121z m777 -151 c85 -37 131 -147 120
-283 -14 -159 -91 -226 -259 -227 l-58 0 0 271 0 272 78 -7 c42 -4 96 -16 119
-26z"/>
<path d="M2420 1240 l0 -120 50 0 50 0 0 -270 0 -270 -50 0 -51 0 3 -123 3
-122 595 0 595 0 3 163 2 162 -165 0 -165 0 0 -40 0 -40 -145 0 -145 0 0 85 0
85 125 0 125 0 0 105 0 105 -125 0 -125 0 0 80 0 80 145 0 145 0 0 -45 0 -45
163 2 162 3 3 163 2 162 -600 0 -600 0 0 -120z"/>
<path d="M3920 1240 l0 -120 51 0 c60 0 61 10 -16 -165 -29 -66 -78 -176 -108
-245 l-54 -125 -52 -3 -52 -3 3 -122 3 -122 248 -3 247 -2 0 115 0 115 -50 0
c-27 0 -50 1 -50 3 0 2 11 30 24 63 l24 59 163 0 162 0 23 -62 24 -63 -55 0
-55 0 0 -115 0 -115 325 0 325 0 0 124 0 125 -46 3 -46 3 -115 255 c-63 140
-117 261 -120 268 -4 9 9 12 46 12 l51 0 0 120 0 120 -450 0 -450 0 0 -120z
m444 -284 c25 -71 45 -131 43 -133 -3 -2 -52 -2 -110 -1 l-105 3 50 120 c27
66 52 128 55 138 8 28 16 13 67 -127z"/>
<path d="M261 194 c-27 -35 -27 -93 0 -127 17 -22 27 -26 65 -25 l44 2 0 42
c0 49 -3 53 -35 46 -28 -5 -34 -22 -9 -22 11 0 14 -5 10 -16 -3 -9 -6 -18 -6
-20 0 -10 -39 -2 -49 10 -18 21 -10 87 12 100 14 9 21 7 31 -6 16 -21 36 -24
36 -5 0 20 -33 47 -58 47 -11 0 -30 -12 -41 -26z"/>
<path d="M40 126 l0 -86 43 0 c56 0 83 26 71 67 -4 15 -8 44 -8 63 l-1 35 -52
3 -53 3 0 -85z m78 41 c4 -20 -25 -34 -40 -19 -15 15 -1 44 19 40 10 -2 19
-11 21 -21z m7 -72 c0 -14 -8 -21 -27 -23 -24 -3 -28 0 -28 23 0 23 4 26 28
23 19 -2 27 -9 27 -23z"/>
<path d="M180 125 c0 -69 3 -85 15 -85 12 0 15 16 15 85 0 69 -3 85 -15 85
-12 0 -15 -16 -15 -85z"/>
<path d="M460 125 c0 -69 3 -85 15 -85 12 0 15 16 15 85 0 69 -3 85 -15 85
-12 0 -15 -16 -15 -85z"/>
<path d="M520 125 l0 -85 38 0 c53 0 77 28 77 90 0 62 -16 80 -71 80 l-44 0 0
-85z m84 39 c18 -47 0 -94 -36 -94 -15 0 -18 9 -18 55 0 51 2 55 24 55 13 0
27 -7 30 -16z"/>
<path d="M660 125 l0 -85 55 0 c41 0 55 4 55 14 0 10 -13 16 -37 18 -51 4 -59
35 -11 40 45 4 45 32 1 36 -46 5 -43 30 4 34 62 5 53 28 -11 28 l-56 0 0 -85z"/>
<path d="M845 198 c-9 -30 -45 -150 -45 -154 0 -14 29 0 33 16 7 27 53 27 62
0 3 -11 13 -20 21 -20 10 0 13 6 10 18 -3 9 -15 47 -26 85 -14 43 -26 67 -36
67 -8 0 -16 -6 -19 -12z m34 -80 c1 -5 -6 -8 -14 -8 -15 0 -21 31 -8 44 7 6
20 -17 22 -36z"/>
<path d="M1076 188 c-20 -29 -21 -97 0 -126 18 -26 65 -30 88 -6 20 20 21 45
1 38 -8 -4 -15 -10 -15 -16 0 -5 -12 -8 -27 -6 -26 3 -28 6 -28 52 0 60 22 81
54 51 24 -21 41 -12 25 13 -6 10 -27 18 -47 20 -27 2 -39 -2 -51 -20z"/>
<path d="M1245 190 c-23 -26 -24 -89 -2 -123 22 -34 67 -36 97 -5 25 27 27 93
4 126 -20 29 -74 30 -99 2z m84 -32 c21 -36 5 -82 -29 -86 -45 -7 -68 62 -33
100 22 24 44 19 62 -14z"/>
<path d="M1410 125 c0 -69 3 -85 15 -85 10 0 15 11 15 35 0 29 4 35 21 35 13
0 25 -11 35 -35 23 -56 45 -45 23 11 -7 21 -7 34 2 51 9 17 10 29 1 48 -10 22
-18 25 -62 25 l-50 0 0 -85z m74 59 c9 -3 16 -15 16 -25 0 -14 -7 -19 -30 -19
-25 0 -30 4 -30 25 0 25 13 31 44 19z"/>
<path d="M1580 125 c0 -69 3 -85 15 -85 10 0 15 10 15 29 0 23 5 30 27 36 39
10 53 24 53 54 0 38 -17 51 -67 51 l-43 0 0 -85z m85 45 c9 -15 -14 -40 -36
-40 -14 0 -19 7 -19 25 0 20 5 25 24 25 14 0 28 -5 31 -10z"/>
<path d="M1756 194 c-50 -49 -19 -154 45 -154 43 0 72 44 66 99 -3 27 -12 50
-23 58 -24 18 -69 16 -88 -3z m68 -17 c23 -17 19 -85 -6 -101 -43 -26 -80 60
-43 98 20 19 26 20 49 3z"/>
<path d="M1920 125 c0 -50 4 -85 10 -85 6 0 10 16 10 36 0 33 2 35 27 32 21
-2 29 -10 37 -35 5 -18 15 -33 22 -33 17 0 17 3 0 45 -9 21 -11 37 -5 40 10 7
12 45 3 69 -4 12 -20 16 -55 16 l-49 0 0 -85z m79 56 c23 -15 5 -41 -29 -41
-22 0 -30 5 -30 18 0 32 28 42 59 23z"/>
<path d="M2101 138 c-12 -40 -25 -79 -28 -85 -2 -7 2 -13 11 -13 9 0 18 11 22
25 5 19 13 25 34 25 21 0 29 -6 34 -25 4 -14 13 -25 21 -25 8 0 15 1 15 3 -3
28 -61 163 -71 165 -10 2 -22 -22 -38 -70z m49 -4 c0 -14 -5 -24 -11 -22 -6 2
-10 7 -10 11 1 4 1 14 1 22 0 8 5 15 10 15 6 0 10 -12 10 -26z"/>
<path d="M2240 195 c0 -8 9 -15 20 -15 18 0 20 -7 20 -70 0 -56 3 -70 15 -70
12 0 15 14 15 70 0 63 2 70 20 70 11 0 20 7 20 15 0 12 -13 15 -55 15 -42 0
-55 -3 -55 -15z"/>
<path d="M2390 125 l0 -85 55 0 c42 0 55 3 55 15 0 11 -11 15 -40 15 -33 0
-40 3 -40 19 0 16 8 20 37 23 52 4 56 28 4 28 -34 0 -41 3 -41 20 0 17 7 20
40 20 29 0 40 4 40 15 0 12 -13 15 -55 15 l-55 0 0 -85z"/>
<path d="M2649 194 c-18 -22 -24 -115 -9 -158 12 -39 37 -51 26 -13 -16 57
-17 104 -3 145 15 43 10 54 -14 26z"/>
<path d="M2712 198 c3 -7 14 -14 26 -16 20 -3 22 -9 22 -73 0 -39 4 -69 10
-69 6 0 10 30 10 70 0 68 1 70 25 70 16 0 25 6 25 15 0 12 -13 15 -61 15 -44
0 -60 -3 -57 -12z"/>
<path d="M2870 125 c0 -69 3 -85 15 -85 11 0 15 11 15 40 0 38 2 40 30 40 28
0 30 -2 30 -40 0 -29 4 -40 15 -40 12 0 15 16 15 85 0 67 -3 85 -14 85 -9 0
-16 -12 -18 -32 -3 -26 -7 -32 -30 -33 -25 -1 -28 3 -28 32 0 23 -5 33 -15 33
-12 0 -15 -16 -15 -85z"/>
<path d="M3076 198 c-3 -7 -14 -42 -25 -77 -24 -74 -25 -81 -11 -81 6 0 15 11
20 25 7 17 17 25 35 25 18 0 26 -7 31 -25 3 -14 13 -25 21 -25 16 0 17 -1 -17
98 -22 67 -45 91 -54 60z m27 -58 c5 -21 -7 -35 -22 -26 -10 7 -3 46 9 46 4 0
10 -9 13 -20z"/>
<path d="M3200 125 c0 -69 3 -85 15 -85 12 0 15 16 15 85 0 69 -3 85 -15 85
-12 0 -15 -16 -15 -85z"/>
<path d="M3280 125 l0 -85 45 0 c33 0 45 4 45 15 0 10 -11 15 -35 15 l-35 0 0
70 c0 40 -4 70 -10 70 -6 0 -10 -35 -10 -85z"/>
<path d="M3450 203 c0 -4 -11 -43 -24 -85 -19 -59 -21 -78 -11 -78 7 0 16 11
19 25 5 19 13 25 35 25 22 0 30 -6 35 -25 4 -14 13 -25 21 -25 19 0 20 -8 -14
86 -18 48 -35 80 -45 82 -9 2 -16 0 -16 -5z m30 -69 c0 -14 -5 -24 -11 -22 -6
2 -10 7 -10 11 1 4 1 14 1 22 0 8 5 15 10 15 6 0 10 -12 10 -26z"/>
<path d="M3577 128 c1 -96 20 -119 25 -31 l3 58 30 -57 c42 -83 55 -77 55 27
0 67 -3 85 -14 85 -11 0 -14 -12 -12 -50 2 -28 0 -50 -3 -50 -3 0 -17 21 -31
47 -40 77 -55 69 -53 -29z"/>
<path d="M3748 125 l3 -85 34 0 c52 0 80 29 80 83 0 60 -24 87 -79 87 l-41 0
3 -85z m80 43 c7 -7 12 -26 12 -43 0 -37 -16 -55 -47 -55 -21 0 -23 4 -23 55
0 51 2 55 23 55 13 0 28 -5 35 -12z"/>
<path d="M3917 173 c15 -38 14 -117 -2 -157 -6 -14 -5 -18 6 -14 47 16 41 208
-7 208 -10 0 -10 -8 3 -37z"/>
<path d="M4096 188 c-27 -38 -17 -117 18 -140 20 -14 56 -8 76 12 25 25 16 49
-9 26 -27 -24 -60 -20 -67 8 -16 66 17 116 55 82 28 -25 46 -17 26 12 -22 30
-78 31 -99 0z"/>
<path d="M4266 188 c-41 -65 -11 -148 53 -148 38 0 61 32 61 85 0 56 -22 85
-65 85 -25 0 -39 -6 -49 -22z m83 -30 c21 -36 5 -82 -29 -86 -45 -7 -65 52
-34 96 20 29 44 25 63 -10z"/>
<path d="M4580 125 l0 -85 45 0 c33 0 45 4 45 15 0 10 -11 15 -35 15 l-35 0 0
70 c0 40 -4 70 -10 70 -6 0 -10 -35 -10 -85z"/>
<path d="M4702 198 c3 -7 14 -14 26 -16 20 -3 22 -9 22 -73 0 -55 3 -69 15
-69 12 0 15 14 15 70 0 63 2 70 20 70 11 0 20 7 20 15 0 12 -13 15 -61 15 -44
0 -60 -3 -57 -12z"/>
<path d="M4860 125 l0 -85 36 0 c48 0 70 14 83 51 23 67 -10 119 -76 119 l-43
0 0 -85z m88 43 c29 -29 6 -98 -33 -98 -24 0 -25 3 -25 55 0 51 2 55 23 55 13
0 28 -5 35 -12z"/>
<path d="M4430 55 c0 -8 7 -15 15 -15 8 0 15 7 15 15 0 8 -7 15 -15 15 -8 0
-15 -7 -15 -15z"/>
<path d="M4503 35 c1 -27 4 -32 14 -23 18 14 17 58 -1 58 -10 0 -14 -11 -13
-35z"/>
<path d="M5030 55 c0 -8 5 -15 10 -15 6 0 10 7 10 15 0 8 -4 15 -10 15 -5 0
-10 -7 -10 -15z"/>
<path d="M843 3 c9 -2 25 -2 35 0 9 3 1 5 -18 5 -19 0 -27 -2 -17 -5z"/>
</g>
</svg>
